<svg xmlns="http://www.w3.org/2000/svg" xmlns:xlink="http://www.w3.org/1999/xlink" width="22" height="22" viewBox="0 0 22 22">
    <defs>
        <path id="a" d="M0 .03h21.972v21.967H0z"/>
    </defs>
    <g fill="none" fill-rule="evenodd">
        <g>
            <mask id="b" fill="#fff">
                <use xlink:href="#a"/>
            </mask>
            <path fill="#555" d="M10.986 22c6.068 0 10.986-4.918 10.986-10.984C21.972 4.949 17.054.03 10.986.03 4.919.03 0 4.949 0 11.016 0 17.082 4.919 22 10.986 22" mask="url(#b)"/>
        </g>
        <path fill="#FFFFFE" d="M6.84 17.575h.766V5.103H6.84z"/>
        <path fill="#FFFFFE" d="M6.84 17.575h.766V5.103H6.84zM3.701 9.645c.014-.793 1.377-.816 1.377-.037l.013.676h1.04V9.66c.066-2.087-3.512-2.086-3.485-.052v3.594c-.027 2.035 3.554 2.087 3.489 0v-.753H5.078v.806c0 .78-1.362.793-1.375 0V9.608l-.002.037M9.652 8.832s.182-.267.658-.532c.605-.336 1.196 0 1.11-.04.475.212.657.723.69 1.294v4.255h.67v.78h-1.723l-.001-5.086c0-.74-1.25-.717-1.263.036l.001-.036v5.087H8.25v-.782l.488.001V9.043l-.58-.003v-.78H9.65l.002.572M17.457 13.184c.035.572.216 1.083.691 1.294-.09-.04.233.12.563.115.172-.002 1.015-.001 1.015-.001v-.783s-.426-.005-.651-.003c-.286.003-.534-.133-.554-.537l.001-4.222-.001-.007h1.016v-.767H18.52l.003-.012V6.623h-1.064v6.561M14.169 9.603c.016-.781 1.373-.774 1.373.005l-.004 1.176h-1.37v-1.18zm1.373 2.846v.806c0 .78-1.36.793-1.373 0v-1.678l2.234.002a.194.194 0 0 0 .194-.193V9.66c.065-2.087-3.512-2.086-3.486-.052v3.594c-.026 2.035 3.555 2.087 3.49 0v-.753h-1.059z"/>
    </g>
</svg>
